Dashboard
…
  Dashboard

# A tibble: 39 x 2
   aisle                              n
   <fct>                          <int>
 1 fresh vegetables              150609
 2 fresh fruits                  150473
 3 packaged vegetables fruits     78493
 4 yogurt                         55240
 5 packaged cheese                41699
 6 water seltzer sparkling water  36617
 7 milk                           32644
 8 chips pretzels                 31269
 9 soy lactosefree                26240
10 bread                          23635
#  with 29 more rows

# A tibble: 214 x 2
# Groups:   product_name [214]
   product_name                    n
   <chr>                       <int>
 1 Organic Whole Milk           4908
 2 2% Reduced Fat Milk          1540
 3 Organic Reduced Fat 2% Milk  1535
 4 Whole Milk                   1335
 5 Fat Free Milk                1220
 6 Organic Reduced Fat Milk     1206
 7 Organic 2% Reduced Fat Milk   931
 8 Organic Milk                  858
 9 Organic Fat Free Milk         811
10 Reduced Fat 2% Milk           763
#  with 204 more rows
…
