Plotly examples
…
## The following object is masked from 'package:graphics':
## 
##     layout

Loading data

data("instacart")
instacart %>% 
  count(aisle) %>% 
  filter(n>10000) %>% 
  arrange(desc(n))

## # A tibble: 39 x 2
##    aisle                              n
##    <chr>                          <int>
##  1 fresh vegetables              150609
##  2 fresh fruits                  150473
##  3 packaged vegetables fruits     78493
##  4 yogurt                         55240
##  5 packaged cheese                41699
##  6 water seltzer sparkling water  36617
##  7 milk                           32644
##  8 chips pretzels                 31269
##  9 soy lactosefree                26240
## 10 bread                          23635
## # … with 29 more rows

instacart %>%
  filter(aisle == "milk") %>% 
  group_by(product_name) %>% 
  count(product_name) %>% 
  arrange(desc(n)) 

## # A tibble: 214 x 2
## # Groups:   product_name [214]
##    product_name                    n
##    <chr>                       <int>
##  1 Organic Whole Milk           4908
##  2 2% Reduced Fat Milk          1540
##  3 Organic Reduced Fat 2% Milk  1535
##  4 Whole Milk                   1335
##  5 Fat Free Milk                1220
##  6 Organic Reduced Fat Milk     1206
##  7 Organic 2% Reduced Fat Milk   931
##  8 Organic Milk                  858
##  9 Organic Fat Free Milk         811
## 10 Reduced Fat 2% Milk           763
## # … with 204 more rows

instacart %>% 
  filter(aisle %in% c("fresh vegetables", "fresh fruits"))%>% 
  group_by(aisle) %>% 
  count(product_name) %>% 
  arrange(desc(n)) %>% 
  filter(n>1000)

## # A tibble: 68 x 3
## # Groups:   aisle [2]
##    aisle            product_name               n
##    <chr>            <chr>                  <int>
##  1 fresh fruits     Banana                 18726
##  2 fresh fruits     Bag of Organic Bananas 15480
##  3 fresh fruits     Organic Strawberries   10894
##  4 fresh fruits     Large Lemon             8135
##  5 fresh fruits     Organic Avocado         7409
##  6 fresh fruits     Organic Hass Avocado    7293
##  7 fresh fruits     Strawberries            6494
##  8 fresh fruits     Limes                   6033
##  9 fresh vegetables Organic Cucumber        4613
## 10 fresh vegetables Organic Zucchini        4589
## # … with 58 more rows
…
